"","strain","time","h","cluster","stain","count","perc.count"
"1","Bs02003",48,"h",1,"1",19273,24.2882887424229
"2","Bs02003",48,"h",1,"2",6670,8.36321689194272
"3","Bs02003",48,"h",1,"3",13031,16.1869743984696
"4","Bs02003",48,"h",2,"1",14763,18.6046804703154
"5","Bs02003",48,"h",2,"2",30951,38.8080848609474
"6","Bs02003",48,"h",2,"3",19897,24.7158490987913
"7","Bs02003",48,"h",3,"1",45315,57.1070307872617
"8","Bs02003",48,"h",3,"2",42133,52.8286982471099
"9","Bs02003",48,"h",3,"3",47575,59.097176502739
"10","Bs02003",56,"h",1,"1",15776,19.3667980210904
"11","Bs02003",56,"h",1,"2",16705,21.5165254128133
"12","Bs02003",56,"h",1,"3",6882,8.7377161575379
"13","Bs02003",56,"h",2,"1",19314,23.7100872831731
"14","Bs02003",56,"h",2,"2",7453,9.59968056879363
"15","Bs02003",56,"h",2,"3",22956,29.1460348899215
"16","Bs02003",56,"h",3,"1",46369,56.9231146957365
"17","Bs02003",56,"h",3,"2",53480,68.8837940183931
"18","Bs02003",56,"h",3,"3",48924,62.1162489525406
"19","Bs02003",72,"h",1,"1",5510,7.10280373831776
"20","Bs02003",72,"h",1,"2",5206,6.56966545940966
"21","Bs02003",72,"h",1,"3",4912,5.75074635602646
"22","Bs02003",72,"h",2,"1",8980,11.5758942958427
"23","Bs02003",72,"h",2,"2",8503,10.7302853248867
"24","Bs02003",72,"h",2,"3",8942,10.468887197799
"25","Bs02003",72,"h",3,"1",63085,81.3213019658395
"26","Bs02003",72,"h",3,"2",65534,82.7000492157036
"27","Bs02003",72,"h",3,"3",71561,83.7803664461746
"28","Bs02003",80,"h",1,"1",1137,1.45825317429781
"29","Bs02003",80,"h",1,"2",3331,4.04360440414193
"30","Bs02003",80,"h",1,"3",1652,2.14164408779185
"31","Bs02003",80,"h",2,"1",5483,7.03219186866744
"32","Bs02003",80,"h",2,"2",5501,6.67783483253821
"33","Bs02003",80,"h",2,"3",6062,7.85874483062603
"34","Bs02003",80,"h",3,"1",71350,91.5095549570348
"35","Bs02003",80,"h",3,"2",73545,89.2785607633199
"36","Bs02003",80,"h",3,"3",69423,89.9996110815821
"37","Bs02003",96,"h",1,"1",4560,5.26334014335676
"38","Bs02003",96,"h",1,"2",4076,4.70116029618694
"39","Bs02003",96,"h",1,"3",7315,8.41084959354268
"40","Bs02003",96,"h",2,"1",4176,4.82011149970567
"41","Bs02003",96,"h",2,"2",4753,5.48199580171161
"42","Bs02003",96,"h",2,"3",4728,5.43629485690632
"43","Bs02003",96,"h",3,"1",77901,89.9165483569376
"44","Bs02003",96,"h",3,"2",77873,89.8168439021015
"45","Bs02003",96,"h",3,"3",74928,86.152855549551
"46","Bs02018",48,"h",1,"1",17042,20.9778675004308
"47","Bs02018",48,"h",1,"2",14710,18.2910148964214
"48","Bs02018",48,"h",1,"3",21166,25.6203549035272
"49","Bs02018",48,"h",2,"1",51641,63.567542283168
"50","Bs02018",48,"h",2,"2",53387,66.3835766332596
"51","Bs02018",48,"h",2,"3",37088,44.8931173893045
"52","Bs02018",48,"h",3,"1",12555,15.4545902164012
"53","Bs02018",48,"h",3,"2",12325,15.3254084703191
"54","Bs02018",48,"h",3,"3",24360,29.4865277071683
"55","Bs02018",56,"h",1,"1",12169,14.5294553095972
"56","Bs02018",56,"h",1,"2",13692,16.4168724970624
"57","Bs02018",56,"h",1,"3",15419,18.9571653388413
"58","Bs02018",56,"h",2,"1",41080,49.0484036583327
"59","Bs02018",56,"h",2,"2",39130,46.9173401117479
"60","Bs02018",56,"h",2,"3",32911,40.4630176059801
"61","Bs02018",56,"h",3,"1",30505,36.4221410320701
"62","Bs02018",56,"h",3,"2",30580,36.6657873911897
"63","Bs02018",56,"h",3,"3",33006,40.5798170551785
"64","Bs02018",72,"h",1,"1",2945,3.53414136565463
"65","Bs02018",72,"h",1,"2",7082,8.4128247466768
"66","Bs02018",72,"h",1,"3",8454,10.738647189584
"67","Bs02018",72,"h",2,"1",21681,26.0182407296292
"68","Bs02018",72,"h",2,"2",21593,25.6506812701203
"69","Bs02018",72,"h",2,"3",8465,10.7526198793268
"70","Bs02018",72,"h",3,"1",58704,70.4476179047162
"71","Bs02018",72,"h",3,"2",55506,65.9364939832029
"72","Bs02018",72,"h",3,"3",61806,78.5087329310892
"73","Bs02018",80,"h",1,"1",1930,2.47877628080811
"74","Bs02018",80,"h",1,"2",3487,4.51508481160171
"75","Bs02018",80,"h",1,"3",2704,3.40416960418975
"76","Bs02018",80,"h",2,"1",11668,14.9856796085332
"77","Bs02018",80,"h",2,"2",14786,19.1454098148388
"78","Bs02018",80,"h",2,"3",7664,9.64850438110585
"79","Bs02018",80,"h",3,"1",64263,82.5355441106587
"80","Bs02018",80,"h",3,"2",58957,76.3395053735595
"81","Bs02018",80,"h",3,"3",69064,86.9473260147044
"82","Bs02018",96,"h",1,"1",1650,2.03139427516159
"83","Bs02018",96,"h",1,"2",3032,3.78933686604844
"84","Bs02018",96,"h",1,"3",1477,1.71582579198662
"85","Bs02018",96,"h",2,"1",5048,6.21483533394891
"86","Bs02018",96,"h",2,"2",6119,7.64741170295198
"87","Bs02018",96,"h",2,"3",4578,5.31824676757937
"88","Bs02018",96,"h",3,"1",74527,91.7537703908895
"89","Bs02018",96,"h",3,"2",70863,88.5632514309996
"90","Bs02018",96,"h",3,"3",80026,92.965927440434
"91","Bs02020",48,"h",1,"1",13412,16.5032177090896
"92","Bs02020",48,"h",1,"2",27477,33.0860837838814
"93","Bs02020",48,"h",1,"3",21795,27.344583150367
"94","Bs02020",48,"h",2,"1",45053,55.4368824521035
"95","Bs02020",48,"h",2,"2",19932,24.0008669789396
"96","Bs02020",48,"h",2,"3",19107,23.9721472931435
"97","Bs02020",48,"h",3,"1",22804,28.0598998388069
"98","Bs02020",48,"h",3,"2",35638,42.9130492371789
"99","Bs02020",48,"h",3,"3",38803,48.6832695564896
"100","Bs02020",56,"h",1,"1",16944,21.2365422938574
"101","Bs02020",56,"h",1,"2",17223,20.6634673065387
"102","Bs02020",56,"h",1,"3",16248,20.0451534105629
"103","Bs02020",56,"h",2,"1",15184,19.0306691566295
"104","Bs02020",56,"h",2,"2",29857,35.8212357528494
"105","Bs02020",56,"h",2,"3",20080,24.7726908225076
"106","Bs02020",56,"h",3,"1",47659,59.7327885495131
"107","Bs02020",56,"h",3,"2",36270,43.5152969406119
"108","Bs02020",56,"h",3,"3",44729,55.1821557669294
"109","Bs02020",72,"h",1,"1",7132,8.85094131225257
"110","Bs02020",72,"h",1,"2",9146,11.1271975180972
"111","Bs02020",72,"h",1,"3",7661,9.20450312984345
"112","Bs02020",72,"h",2,"1",11878,14.7408133632832
"113","Bs02020",72,"h",2,"2",14188,17.261390595535
"114","Bs02020",72,"h",2,"3",8533,10.252189688938
"115","Bs02020",72,"h",3,"1",61569,76.4082453244642
"116","Bs02020",72,"h",3,"2",58861,71.6114118863678
"117","Bs02020",72,"h",3,"3",67037,80.5433071812185
"118","Bs02020",80,"h",1,"1",2849,3.78785864333768
"119","Bs02020",80,"h",1,"2",4743,5.90718876102227
"120","Bs02020",80,"h",1,"3",1858,2.43467777865136
"121","Bs02020",80,"h",2,"1",4063,5.40191985534608
"122","Bs02020",80,"h",2,"2",10820,13.4758132815224
"123","Bs02020",80,"h",2,"3",4169,5.46295568309878
"124","Bs02020",80,"h",3,"1",68302,90.8102215013162
"125","Bs02020",80,"h",3,"2",64729,80.6169979574553
"126","Bs02020",80,"h",3,"3",70287,92.1023665382499
"127","Bs02020",96,"h",1,"1",4511,5.27713436746917
"128","Bs02020",96,"h",1,"2",6048,7.07815462397304
"129","Bs02020",96,"h",1,"3",7296,8.70239387397273
"130","Bs02020",96,"h",2,"1",6752,7.89873891579514
"131","Bs02020",96,"h",2,"2",7381,8.63820424595651
"132","Bs02020",96,"h",2,"3",4819,5.74792161166044
"133","Bs02020",96,"h",3,"1",74219,86.8241267167357
"134","Bs02020",96,"h",3,"2",72017,84.2836411300704
"135","Bs02020",96,"h",3,"3",71724,85.5496845143668
